<?xml version="1.0" encoding="utf-8"?>
<!-- Generator: Adobe Illustrator 21.0.0, SVG Export Plug-In . SVG Version: 6.00 Build 0)  -->
<svg version="1.1" id="Layer_1" xmlns="http://www.w3.org/2000/svg" xmlns:xlink="http://www.w3.org/1999/xlink" x="0px" y="0px"
	 viewBox="0 0 264 88" style="enable-background:new 0 0 264 88;" xml:space="preserve">
<style type="text/css">
	.st0{fill:#FFFFFF;}
	.st1{display:none;fill:#FFFFFF;}
	.st2{display:none;fill:#464841;}
	.st3{fill-rule:evenodd;clip-rule:evenodd;fill:#FFFFFF;}
	.st4{fill:none;stroke:#FFFFFF;stroke-width:1.5;}
	.st5{clip-path:url(#SVGID_2_);fill:#464841;}
</style>
<title>default-skin 2</title>
<g>
	<g>
		<path id="Shape" class="st0" d="M67,59.5v3.8c-6.3,0.8-9.2,5.8-10,9.7c2.2-2.8,5.6-5.1,10-5.1v3.6l6-5.9L67,59.5z"/>
		<g>
			<path id="Shape_1_" class="st0" d="M13,29v-5h2v3h3v2H13z M13,15h5v2h-3v3h-2V15z M31,15v5h-2v-3h-3v-2H31z M31,29h-5v-2h3v-3h2
				V29z"/>
		</g>
		<g>
			<path class="st0" d="M62,24v5h-2v-3h-3v-2H62z M62,20h-5v-2h3v-3h2V20z M70,20v-5h2v3h3v2H70z M70,24h5v2h-3v3h-2V24z"/>
		</g>
		<path class="st1" d="M20.6,66l-5.7-5.7l1.4-1.4l5.7,5.7l5.7-5.7l1.4,1.4L23.4,66l5.7,5.7l-1.4,1.4L22,67.4l-5.7,5.7l-1.4-1.4
			L20.6,66z"/>
		<path class="st2" d="M111.8,65l-1.8-1.5l3-3.5v-2l-3-3.5l1.8-1.5l5.2,6L111.8,65z"/>
		<path class="st3" d="M111.7,59l-4.1,4.1c-0.4,0.4-0.4,0.8-0.3,1.2c0.3,0.8,1.2,1.1,1.8,0.5l0.1-0.1c1.9-1.9,5.7-5.7,5.7-5.7
			s-3.8-3.8-5.7-5.7c-0.1-0.3-0.4-0.4-0.7-0.4c-0.5-0.1-1.2,0.3-1.4,1c-0.1,0.4,0,0.8,0.3,1.1L111.7,59z"/>
		<path class="st1" d="M152.2,65l1.8-1.5l-3-3.5h10v-2h-10l3-3.5l-1.8-1.5l-5.2,6L152.2,65z"/>
		<path class="st3" d="M152.5,59l4.1,4.1c0.4,0.4,0.4,0.8,0.3,1.2c-0.3,0.8-1.2,1.1-1.8,0.5l-0.1-0.1c-1.9-1.9-5.7-5.7-5.7-5.7
			s3.8-3.8,5.7-5.7c0.1-0.3,0.4-0.4,0.7-0.4c0.5-0.1,1.2,0.3,1.4,1c0.1,0.4,0,0.8-0.3,1.1L152.5,59z"/>
		<g>
			<path id="Rectangle-11" class="st0" d="M161,28.5l-3.2-3.2l-1.4,1.4l3.2,3.2L161,28.5z"/>
			<path id="Oval-1" class="st4" d="M152.5,27c3,0,5.5-2.5,5.5-5.5s-2.5-5.5-5.5-5.5s-5.5,2.5-5.5,5.5S149.5,27,152.5,27z"/>
			<path class="st0" d="M150,21h5v1h-5V21z"/>
		</g>
		<g>
			<path class="st0" d="M117,28.5l-1.4,1.4l-3.2-3.2l1.4-1.4L117,28.5z"/>
			<path class="st4" d="M108.5,27c3,0,5.5-2.5,5.5-5.5s-2.5-5.5-5.5-5.5s-5.5,2.5-5.5,5.5S105.5,27,108.5,27z"/>
			<path class="st0" d="M106,21h5v1h-5V21z"/>
			<path class="st0" d="M109,19l-0.1,5h-1l0.1-5H109z"/>
		</g>
	</g>
</g>
<g>
	<g>
		<defs>
			<path id="SVGID_1_" d="M19.7,62.1l1.3-1.3v3.5c0,0.9-0.9,0.9-0.9,0.9h-3.5l1.3-1.3l-3.1-3.1l1.8-1.8L19.7,62.1z M24.1,70
				l-1.3,1.3v-3.5c0-0.9,0.9-0.9,0.9-0.9h3.5l-1.3,1.3l3.1,3.1l-1.8,1.8L24.1,70z M25.8,63.8l1.3,1.3h-3.5c-0.9,0-0.9-0.9-0.9-0.9
				v-3.5L24,62l3.1-3.1l1.8,1.8L25.8,63.8z M18,68.2l-1.3-1.3h3.5c0.9,0,0.9,0.9,0.9,0.9v3.5L19.7,70l-3.1,3.1l-1.8-1.8L18,68.2z"/>
		</defs>
		<clipPath id="SVGID_2_">
			<use xlink:href="#SVGID_1_"  style="overflow:visible;"/>
		</clipPath>
		<rect x="9" y="53.1" class="st5" width="25.8" height="25.8"/>
	</g>
</g>
</svg>
