<?xml version="1.0" encoding="utf-8"?>
<!-- Generator: Adobe Illustrator 19.2.0, SVG Export Plug-In . SVG Version: 6.00 Build 0)  -->
<svg version="1.1" id="svg" xmlns="http://www.w3.org/2000/svg" xmlns:xlink="http://www.w3.org/1999/xlink" x="0px" y="0px"
	 viewBox="0 0 250 250" style="enable-background:new 0 0 250 250;" xml:space="preserve">
<style type="text/css">
	.st0{fill:#464841;}
</style>
<g>
	<path class="st0" d="M182.9,246.2c0.3,1.2,1.2,1.8,2.5,1.8s2.1-0.8,2.1-1.9c0-1.3-1-1.6-2.3-2.2c-2.3-1.1-3.6-2-3.6-4
		c0-2.1,1.6-3.6,3.9-3.6c1.9,0,3.3,0.8,3.8,2.2l-1.7,0.9c-0.5-0.8-1.1-1.2-1.9-1.2c-1.2,0-1.9,0.7-1.9,1.6c0,1.3,1,1.6,2.5,2.3
		c2.3,1.1,3.4,2,3.4,3.9c0,2.4-1.6,4-4.3,4c-2.2,0-3.7-1.1-4.1-3L182.9,246.2z"/>
	<path class="st0" d="M196.2,249.6h-2.1v-11.3h-3.5v-1.8h9v1.8h-3.5v11.3H196.2z"/>
	<path class="st0" d="M207,246.2h-5.2l-1.5,3.4h-2.2l6.3-13.6l6.3,13.6h-2.2L207,246.2z M206.3,244.4l-1.3-3
		c-0.1-0.3-0.3-0.8-0.5-1.5c-0.2,0.7-0.3,1.1-0.5,1.5l-1.3,3H206.3z"/>
	<path class="st0" d="M224.1,242.9c0,0.5,0,0.9,0,1.2c0,3.7-2.2,5.8-6,5.8c-2.1,0-3.8-0.6-5.1-1.9c-1.2-1.3-1.9-3-1.9-5
		s0.7-3.7,2-4.9s3-1.9,5-1.9c2.1,0,3.7,0.7,4.9,2.3l-1.6,1.2c-0.9-1-2-1.5-3.3-1.5c-2.8,0-4.8,2-4.8,4.9c0,3,2,5,4.8,5
		c2.4,0,3.9-1.2,3.9-3.2c0-0.1,0-0.1,0-0.2h-3.1v-1.8L224.1,242.9L224.1,242.9z"/>
	<path class="st0" d="M226.3,236.5h7.3v1.8h-5.2v3.3h5.2v1.9h-5.2v4.2h5.2v1.9h-7.3V236.5z"/>
	<polygon class="st0" points="246.5,236.3 246.6,249.3 237.3,240.1 	"/>
</g>
<g>
	<path class="st0" d="M34,216h1.1v2.5h3.3V216h1.1v6.7h-1.1v-3.2h-3.3v3.2H34V216z"/>
</g>
<g>
	<path class="st0" d="M36.3,98.3h1.1v2.8l2.4-2.8h1.3l-2.6,3l3,3.7h-1.4l-2.6-3.4v3.4h-1.2V98.3z"/>
</g>
<g>
	<path class="st0" d="M20,71.6h1.1v5.7h2.4v1H20V71.6z"/>
</g>
<g>
	<path class="st0" d="M16.7,199c0.5,0,0.6-0.3,0.6-1v-4.8h1.1v5.2c0,1.1-0.5,1.6-1.5,1.6c-0.6,0-1-0.2-1.5-0.7l0.7-0.7
		C16.3,198.8,16.5,199,16.7,199z"/>
</g>
<g>
	<path class="st0" d="M163,94h1.1v2.5h3.3V94h1.1v6.7h-1.1v-3.2h-3.3v3.2H163V94z"/>
</g>
<g>
	<path class="st0" d="M147.3,32.3h1.1v2.8l2.4-2.8h1.3l-2.6,3l3,3.7h-1.4l-2.6-3.4V39h-1.2V32.3z"/>
</g>
<g>
	<path class="st0" d="M136,4h1.1v5.7h2.4v1H136V4z"/>
</g>
<g>
	<path class="st0" d="M160.7,68c0.5,0,0.6-0.3,0.6-1v-4.8h1.1v5.2c0,1.1-0.5,1.6-1.5,1.6c-0.6,0-1-0.2-1.5-0.7l0.7-0.7
		C160.3,67.8,160.5,68,160.7,68z"/>
</g>
<g>
	<path class="st0" d="M142,148.1c0,0.3,0,0.5,0,0.6c0,1.9-1.1,3-3.1,3c-1.1,0-1.9-0.3-2.6-1c-0.6-0.6-1-1.5-1-2.5s0.3-1.9,1-2.5
		s1.5-1,2.5-1c1.1,0,1.9,0.4,2.5,1.2l-0.8,0.6c-0.4-0.5-1-0.8-1.7-0.8c-1.4,0-2.5,1-2.5,2.5s1,2.5,2.5,2.5c1.2,0,2-0.6,2-1.6V149
		h-1.6v-0.9H142L142,148.1z"/>
</g>
</svg>
