<?xml version="1.0" encoding="utf-8"?>
<!-- Generator: Adobe Illustrator 19.2.0, SVG Export Plug-In . SVG Version: 6.00 Build 0)  -->
<svg version="1.1" id="svg" xmlns="http://www.w3.org/2000/svg" xmlns:xlink="http://www.w3.org/1999/xlink" x="0px" y="0px"
	 viewBox="0 0 250 250" style="enable-background:new 0 0 250 250;" xml:space="preserve">
<style type="text/css">
	.st0{fill:#464841;}
	.st1{fill:none;stroke:#B4BAAE;stroke-miterlimit:10;}
</style>
<g>
	<path class="st0" d="M15.8,246.2c0.3,1.2,1.2,1.8,2.5,1.8s2.1-0.8,2.1-1.9c0-1.3-1-1.6-2.3-2.3c-2.3-1.1-3.6-2-3.6-4
		c0-2.1,1.6-3.6,3.9-3.6c1.9,0,3.3,0.8,3.8,2.2l-1.7,0.9c-0.5-0.8-1.1-1.2-1.9-1.2c-1.2,0-1.9,0.7-1.9,1.6c0,1.3,1,1.6,2.5,2.3
		c2.3,1.1,3.4,2,3.4,3.9c0,2.4-1.6,4-4.3,4c-2.2,0-3.7-1.1-4.1-3L15.8,246.2z"/>
	<path class="st0" d="M29.2,249.7H27v-11.3h-3.5v-1.8h9.1v1.8h-3.5v11.3H29.2z"/>
	<path class="st0" d="M40.1,246.3h-5.2l-1.5,3.4h-2.2l6.3-13.6l6.3,13.6h-2.3L40.1,246.3z M39.3,244.5l-1.3-3
		c-0.1-0.3-0.3-0.8-0.5-1.5c-0.2,0.7-0.3,1.1-0.5,1.5l-1.3,3H39.3z"/>
	<path class="st0" d="M57.1,243c0,0.5,0,0.9,0,1.2c0,3.7-2.2,5.8-6,5.8c-2.1,0-3.8-0.6-5.1-1.9c-1.2-1.3-1.9-3-1.9-5s0.7-3.7,2-4.9
		s3-1.9,5-1.9c2.1,0,3.7,0.8,4.9,2.3l-1.6,1.2c-0.9-1-2-1.5-3.4-1.5c-2.8,0-4.8,2-4.8,4.9c0,3,2,5,4.8,5c2.5,0,3.9-1.2,3.9-3.2
		c0-0.1,0-0.1,0-0.2h-3.1V243H57.1z"/>
	<path class="st0" d="M59.4,236.6h7.3v1.8h-5.2v3.3h5.2v1.9h-5.2v4.2h5.2v1.9h-7.3C59.4,249.7,59.4,236.6,59.4,236.6z"/>
	<polygon class="st0" points="12.6,239.8 3.3,249 3.4,236 	"/>
</g>
<path class="st1" d="M172.5,249.7v-25.2c0-13-1.6-26-4.9-38.5C155.7,140.6,117.1,48.6,0,48.6"/>
<path class="st0" d="M236.6,144h1.7c0.7,0,1.2,0,1.6,0.3c0.4,0.3,0.7,0.8,0.7,1.4c0,0.7-0.3,1.2-1,1.4c0.8,0.1,1.2,0.7,1.2,1.6
	c0,0.5-0.2,1.1-0.5,1.4c-0.5,0.5-1.1,0.5-2,0.5h-1.7V144z M238.1,146.8c1,0,1.4-0.2,1.4-0.9c0-0.8-0.5-1-1.4-1h-0.4v1.9H238.1z
	 M238,149.8c0.6,0,1,0,1.3-0.2s0.4-0.5,0.4-0.8c0-0.4-0.2-0.7-0.5-0.9c-0.3-0.1-0.5-0.1-0.9-0.1c-0.1,0-0.2,0-0.3,0h-0.4v2.1h0.4
	V149.8z"/>
<path class="st0" d="M220.8,171.5h-2.6l-0.8,1.7h-1.1l3.2-6.8l3.2,6.8h-1.1L220.8,171.5z M220.4,170.6l-0.7-1.5
	c-0.1-0.2-0.2-0.4-0.2-0.7c-0.1,0.3-0.2,0.6-0.2,0.7l-0.7,1.5H220.4z"/>
<path class="st0" d="M99.6,1h1.7c0.7,0,1.2,0,1.6,0.3s0.7,0.8,0.7,1.4c0,0.7-0.3,1.2-1,1.4c0.8,0.1,1.2,0.7,1.2,1.6
	c0,0.5-0.2,1.1-0.5,1.4c-0.5,0.5-1.1,0.5-2,0.5h-1.7L99.6,1L99.6,1z M101.1,3.8c1,0,1.4-0.2,1.4-0.9c0-0.8-0.5-1-1.4-1h-0.4v1.9
	H101.1z M101,6.8c0.6,0,1,0,1.3-0.2s0.4-0.5,0.4-0.8c0-0.4-0.2-0.7-0.5-0.9c-0.3-0.1-0.5-0.1-0.9-0.1c-0.1,0-0.2,0-0.3,0h-0.4v2.1
	h0.4V6.8z"/>
<path class="st0" d="M88.8,28.5h-2.6l-0.8,1.7h-1.1l3.2-6.8l3.2,6.8h-1.1L88.8,28.5z M88.4,27.6l-0.7-1.5c-0.1-0.2-0.2-0.4-0.2-0.7
	c-0.1,0.3-0.2,0.6-0.2,0.7l-0.7,1.5H88.4z"/>
</svg>
