<?xml version="1.0" encoding="utf-8"?>
<!-- Generator: Adobe Illustrator 19.2.0, SVG Export Plug-In . SVG Version: 6.00 Build 0)  -->
<svg version="1.1" id="svg" xmlns="http://www.w3.org/2000/svg" xmlns:xlink="http://www.w3.org/1999/xlink" x="0px" y="0px"
	 viewBox="0 0 200 200" style="enable-background:new 0 0 200 200;" xml:space="preserve">
<style type="text/css">
	.st0{fill:#464841;}
	.st1{fill:none;stroke:#B4BAAE;stroke-miterlimit:10;}
</style>
<g>
	<path class="st0" d="M80.5,197c0.2,0.9,1,1.4,2,1.4s1.7-0.6,1.7-1.6s-0.8-1.3-1.9-1.8c-1.9-0.9-2.9-1.6-2.9-3.2
		c0-1.7,1.2-2.9,3.1-2.9c1.6,0,2.6,0.6,3,1.7l-1.3,0.7c-0.4-0.6-0.9-1-1.6-1c-0.9,0-1.5,0.5-1.5,1.3c0,1,0.8,1.3,2,1.9
		c1.8,0.8,2.7,1.6,2.7,3.1c0,1.9-1.3,3.2-3.5,3.2c-1.8,0-3-0.8-3.3-2.4L80.5,197z"/>
	<path class="st0" d="M91.1,199.7h-1.7v-9h-2.8v-1.5h7.3v1.5h-2.8V199.7z"/>
	<path class="st0" d="M99.9,197h-4.1l-1.2,2.7h-1.8l5.1-10.9l5.1,10.9h-1.8L99.9,197z M99.3,195.6l-1.1-2.4
		c-0.1-0.3-0.2-0.7-0.4-1.2c-0.1,0.5-0.3,0.9-0.4,1.2l-1.1,2.4H99.3z"/>
	<path class="st0" d="M113.5,194.4c0,0.4,0,0.7,0,1c0,3-1.8,4.7-4.8,4.7c-1.7,0-3-0.5-4.1-1.5c-1-1-1.5-2.4-1.5-4s0.5-2.9,1.6-4
		c1-1,2.4-1.5,4-1.5c1.7,0,2.9,0.6,4,1.8l-1.2,0.9c-0.7-0.8-1.6-1.2-2.7-1.2c-2.2,0-3.9,1.6-3.9,3.9c0,2.4,1.6,4,3.9,4
		c2,0,3.1-1,3.1-2.5v-0.1h-2.5v-1.4L113.5,194.4L113.5,194.4z"/>
	<path class="st0" d="M115.3,189.3h5.8v1.5H117v2.6h4.1v1.5H117v3.4h4.1v1.5h-5.8V189.3z"/>
</g>
<path class="st0" d="M39.8,119.9h-2.6l-0.8,1.7h-1.1l3.2-6.8l3.2,6.8h-1.1L39.8,119.9z M39.4,119l-0.7-1.5c-0.1-0.2-0.2-0.4-0.2-0.7
	c-0.1,0.3-0.2,0.6-0.2,0.7l-0.7,1.5H39.4z"/>
<path class="st0" d="M45.8,119.9h-2.6l-0.8,1.7h-1.1l3.2-6.8l3.2,6.8h-1.1L45.8,119.9z M45.5,119l-0.7-1.5c-0.1-0.2-0.2-0.4-0.2-0.7
	c-0.1,0.3-0.2,0.6-0.2,0.7l-0.7,1.5H45.5z"/>
<path class="st0" d="M24.6,51.4h1.7c0.7,0,1.2,0,1.6,0.3s0.7,0.8,0.7,1.4c0,0.7-0.3,1.2-1,1.4c0.8,0.1,1.2,0.7,1.2,1.6
	c0,0.5-0.2,1.1-0.5,1.4c-0.5,0.5-1.1,0.5-2,0.5h-1.7L24.6,51.4L24.6,51.4z M26.1,54.2c1,0,1.4-0.2,1.4-0.9c0-0.8-0.5-1-1.4-1h-0.4
	v1.9H26.1z M26,57.2c0.6,0,1,0,1.3-0.2s0.4-0.5,0.4-0.8c0-0.4-0.2-0.7-0.5-0.9c-0.3-0.1-0.5-0.1-0.9-0.1c-0.1,0-0.2,0-0.3,0h-0.4
	v2.1H26V57.2z"/>
<path class="st0" d="M75.2,20.2c-1.5,0-2.5,1-2.5,2.5s1,2.5,2.3,2.5c0.8,0,1.5-0.3,2.2-0.8v1.2c-0.6,0.4-1.3,0.6-2.1,0.6
	c-1,0-1.9-0.3-2.6-1c-0.7-0.6-1-1.5-1-2.5s0.4-1.9,1-2.5c0.7-0.7,1.5-1,2.5-1c0.8,0,1.5,0.2,2.2,0.7L77.1,21
	C76.7,20.5,76,20.2,75.2,20.2z"/>
<path class="st0" d="M26.8,88.9h-2.6l-0.8,1.7h-1.1l3.2-6.8l3.2,6.8h-1.1L26.8,88.9z M26.4,88l-0.7-1.5c-0.1-0.2-0.2-0.4-0.2-0.7
	c-0.1,0.3-0.2,0.6-0.2,0.7L24.6,88H26.4z"/>
<path class="st0" d="M163.8,119.9h-2.6l-0.8,1.7h-1.1l3.2-6.8l3.2,6.8h-1.1L163.8,119.9z M163.4,119l-0.7-1.5
	c-0.1-0.2-0.2-0.4-0.2-0.7c-0.1,0.3-0.2,0.6-0.2,0.7l-0.7,1.5H163.4z"/>
<path class="st0" d="M169.8,119.9h-2.6l-0.8,1.7h-1.1l3.2-6.8l3.2,6.8h-1.1L169.8,119.9z M169.5,119l-0.7-1.5
	c-0.1-0.2-0.2-0.4-0.2-0.7c-0.1,0.3-0.2,0.6-0.2,0.7l-0.7,1.5H169.5z"/>
<path class="st0" d="M179.6,51.4h1.7c0.7,0,1.2,0,1.6,0.3c0.4,0.3,0.7,0.8,0.7,1.4c0,0.7-0.3,1.2-1,1.4c0.8,0.1,1.2,0.7,1.2,1.6
	c0,0.5-0.2,1.1-0.5,1.4c-0.5,0.5-1.1,0.5-2,0.5h-1.7V51.4z M181.1,54.2c1,0,1.4-0.2,1.4-0.9c0-0.8-0.5-1-1.4-1h-0.4v1.9H181.1z
	 M181,57.2c0.6,0,1,0,1.3-0.2s0.4-0.5,0.4-0.8c0-0.4-0.2-0.7-0.5-0.9c-0.3-0.1-0.5-0.1-0.9-0.1c-0.1,0-0.2,0-0.3,0h-0.4v2.1h0.4
	V57.2z"/>
<path class="st0" d="M132.2,20.2c-1.5,0-2.5,1-2.5,2.5s1,2.5,2.3,2.5c0.8,0,1.5-0.3,2.2-0.8v1.2c-0.6,0.4-1.3,0.6-2.1,0.6
	c-1,0-1.9-0.3-2.6-1c-0.7-0.6-1-1.5-1-2.5s0.4-1.9,1-2.5c0.7-0.7,1.5-1,2.5-1c0.8,0,1.5,0.2,2.2,0.7l-0.1,1.1
	C133.7,20.5,133,20.2,132.2,20.2z"/>
<path class="st0" d="M181.8,88.9h-2.6l-0.8,1.7h-1.1l3.2-6.8l3.2,6.8h-1.1L181.8,88.9z M181.4,88l-0.7-1.5c-0.1-0.2-0.2-0.4-0.2-0.7
	c-0.1,0.3-0.2,0.6-0.2,0.7l-0.7,1.5H181.4z"/>
<line class="st1" x1="0" y1="149" x2="200" y2="149"/>
</svg>
