<?xml version="1.0" encoding="utf-8"?>
<!-- Generator: Adobe Illustrator 19.2.0, SVG Export Plug-In . SVG Version: 6.00 Build 0)  -->
<svg version="1.1" id="svg" xmlns="http://www.w3.org/2000/svg" xmlns:xlink="http://www.w3.org/1999/xlink" x="0px" y="0px"
	 viewBox="0 0 285 285" style="enable-background:new 0 0 285 285;" xml:space="preserve">
<style type="text/css">
	.st0{fill:#FFFFFF;}
	.st1{fill:#464841;}
</style>
<rect x="-0.1" y="-0.2" class="st0" width="285" height="285"/>
<g>
	<path class="st1" d="M241.9,42.1v-8.6h2.1c1.1,0,1.8,0.2,2.3,0.7c0.4,0.4,0.6,1,0.6,1.6c0,0.4-0.1,0.8-0.2,1
		c-0.1,0.3-0.4,0.5-0.7,0.7c0.6,0.1,1,0.4,1.2,0.7c0.3,0.4,0.5,0.9,0.5,1.5c0,0.8-0.3,1.4-0.8,1.8s-1.2,0.7-2.1,0.7L241.9,42.1
		L241.9,42.1z M243.6,37.1h0.5c0.9,0,1.3-0.4,1.3-1.1s-0.4-1.1-1.3-1.1h-0.5V37.1z M243.6,40.8h0.7c1.1,0,1.7-0.4,1.7-1.2
		c0-0.4-0.1-0.7-0.4-0.9c-0.1-0.1-0.3-0.2-0.5-0.3c-0.2,0-0.5-0.1-0.9-0.1h-0.6V40.8z"/>
	<path class="st1" d="M251.4,37.6l-2.6-4.1h2l1.5,2.7l1.6-2.7h2l-2.5,4.1l2.9,4.6h-2l-1.9-3.2l-2,3.2h-2L251.4,37.6z"/>
	<path class="st1" d="M262.5,40.3H259l-0.8,1.8h-1.8l3.7-8.8h1.3l3.6,8.8h-1.8L262.5,40.3z M262,39l-1.2-3.1l-1.3,3.1H262z"/>
</g>
<g>
	<path class="st1" d="M219.3,195.7l1.6-8.8h1.1l2.4,5.6l2.5-5.6h1.1l1.4,8.8h-1.7l-0.8-5.3l-2.4,5.4H224l-2.3-5.4l-0.9,5.3H219.3z"
		/>
</g>
<g>
	<path class="st1" d="M240.6,172.4v3.2h-1.7V167h2.5c0.6,0,1.1,0.1,1.5,0.2c0.4,0.1,0.7,0.3,1,0.6c0.5,0.5,0.7,1.1,0.7,1.9
		c0,0.7-0.2,1.3-0.6,1.8c-0.5,0.6-1.3,0.9-2.3,0.9H240.6z M240.6,171h0.7c1,0,1.6-0.4,1.6-1.2c0-0.4-0.1-0.8-0.4-1
		c-0.3-0.2-0.7-0.3-1.3-0.3h-0.6V171z"/>
</g>
<g>
	<path class="st1" d="M267.4,157.8l-1.7,0.2l-0.7-0.8c-0.7,0.4-1.5,0.6-2.4,0.6c-1.3,0-2.4-0.4-3.3-1.3c-0.9-0.9-1.3-1.9-1.3-3.2
		s0.4-2.3,1.3-3.2c0.9-0.9,2-1.3,3.3-1.3c1.3,0,2.4,0.4,3.3,1.3c0.9,0.9,1.3,1.9,1.3,3.2c0,1.1-0.4,2.1-1.2,3.1L267.4,157.8z
		 M263.9,154.1l1,1c0.5-0.5,0.7-1.1,0.7-1.8c0-0.8-0.3-1.5-0.8-2.1c-0.6-0.6-1.3-0.9-2.1-0.9c-0.8,0-1.5,0.3-2.1,0.9
		c-0.6,0.6-0.8,1.3-0.8,2.1s0.3,1.5,0.8,2.1s1.2,0.8,2,0.8c0.5,0,0.9-0.1,1.2-0.4l-1.7-1.6L263.9,154.1z"/>
</g>
<g>
	<path class="st1" d="M281.5,131.1l2.7,3.6h-2.1l-2.3-3.5h-0.2v3.5h-1.7v-8.6h2.5c1.1,0,1.9,0.3,2.4,0.8s0.7,1.1,0.7,1.8
		s-0.2,1.2-0.5,1.6C282.7,130.7,282.2,130.9,281.5,131.1z M279.6,130h0.5c1.1,0,1.6-0.4,1.6-1.3c0-0.9-0.5-1.3-1.6-1.3h-0.5V130z"/>
</g>
<g>
	<path class="st1" d="M284,105.7l-0.9,1.1c-0.4-0.5-0.9-0.7-1.4-0.7c-0.3,0-0.6,0.1-0.9,0.3c-0.2,0.2-0.4,0.4-0.4,0.7
		c0,0.2,0.1,0.4,0.3,0.6c0.2,0.2,0.5,0.3,1,0.5c0.9,0.3,1.5,0.7,1.9,1c0.4,0.4,0.6,1,0.6,1.7c0,0.8-0.3,1.5-0.8,2.1
		c-0.6,0.5-1.3,0.8-2.2,0.8c-1.2,0-2.2-0.5-3-1.6l1.1-1c0.4,0.8,1,1.1,1.8,1.1c0.4,0,0.7-0.1,1-0.3c0.3-0.2,0.4-0.5,0.4-0.9
		c0-0.3-0.1-0.6-0.3-0.7c-0.1-0.1-0.3-0.2-0.5-0.3c-0.2-0.1-0.5-0.2-0.9-0.4c-0.8-0.3-1.3-0.6-1.6-0.9c-0.3-0.4-0.5-0.8-0.5-1.4
		c0-0.7,0.3-1.3,0.8-1.8s1.2-0.7,1.9-0.7C282.4,104.7,283.3,105,284,105.7z"/>
</g>
<g>
	<path class="st1" d="M125.9,62.1h-1.7V55h-1.9v-1.5h5.5V55h-1.9L125.9,62.1L125.9,62.1z"/>
</g>
<g>
	<path class="st1" d="M201.5,232.8l3.2-3.6h2.1l-3.6,4l3.8,4.6h-2.2l-3.1-3.9l-0.2,0.2v3.7h-1.7v-8.6h1.7
		C201.5,229.2,201.5,232.8,201.5,232.8z"/>
</g>
<g>
	<path class="st1" d="M223.8,207.2v7.2h2.7v1.5h-4.3v-8.6L223.8,207.2L223.8,207.2z"/>
</g>
<g>
	<path class="st1" d="M12.6,281.2c0.3,1.2,1.2,1.8,2.5,1.8s2.1-0.8,2.1-1.9c0-1.3-1-1.6-2.3-2.2c-2.3-1.1-3.6-2-3.6-4
		c0-2.1,1.6-3.6,3.9-3.6c1.9,0,3.3,0.8,3.8,2.2l-1.7,0.9c-0.5-0.8-1.1-1.2-1.9-1.2c-1.2,0-1.9,0.7-1.9,1.6c0,1.3,1,1.6,2.5,2.3
		c2.3,1.1,3.4,2,3.4,3.9c0,2.4-1.6,4-4.3,4c-2.2,0-3.7-1.1-4.1-3L12.6,281.2z"/>
	<path class="st1" d="M25.9,284.6h-2.1v-11.3h-3.5v-1.8h9v1.8h-3.5v11.3H25.9z"/>
	<path class="st1" d="M36.7,281.2h-5.2l-1.5,3.4h-2.2l6.3-13.6l6.3,13.6h-2.2L36.7,281.2z M36,279.4l-1.3-3
		c-0.1-0.3-0.3-0.8-0.5-1.5c-0.2,0.7-0.3,1.1-0.5,1.5l-1.3,3H36z"/>
	<path class="st1" d="M53.8,277.9c0,0.5,0,0.9,0,1.2c0,3.7-2.2,5.8-6,5.8c-2.1,0-3.8-0.6-5.1-1.9c-1.2-1.3-1.9-3-1.9-5
		s0.7-3.7,2-4.9s3-1.9,5-1.9c2.1,0,3.7,0.7,4.9,2.3l-1.6,1.2c-0.9-1-2-1.5-3.3-1.5c-2.8,0-4.8,2-4.8,4.9c0,3,2,5,4.8,5
		c2.4,0,3.9-1.2,3.9-3.2c0-0.1,0-0.1,0-0.2h-3.1v-1.8L53.8,277.9L53.8,277.9z"/>
	<path class="st1" d="M56,271.5h7.3v1.8h-5.2v3.3h5.2v1.9h-5.2v4.2h5.2v1.9H56V271.5z"/>
	<polygon class="st1" points="9.3,275.1 0,284.3 0.1,271.3 	"/>
</g>
</svg>
