<svg xmlns="http://www.w3.org/2000/svg" version="1.1" x="0px" y="0px" viewBox="-287 410.9 21 21" xml:space="preserve" enable-background="new -287 410.9 21 21">
  <style type="text/css">
    
	.st0{fill:#464841;}

  </style>
  <title>
    search icon
  </title>
  <desc>
    Created with Sketch.
  </desc>
  <g transform="translate(-277.000000, -354.000000)">
    <g transform="translate(194.000000, 345.000000)">
      <path class="st0" d="M-189.7 428.9c0 3-2.4 5.4-5.4 5.4s-5.4-2.4-5.4-5.4 2.4-5.4 5.4-5.4S-189.7 425.9-189.7 428.9L-189.7 428.9zM-183.5 438.9c0-0.4-0.2-0.8-0.4-1.1l-4.1-4.1c1-1.4 1.5-3.1 1.5-4.8 0-4.7-3.8-8.5-8.5-8.5s-8.5 3.8-8.5 8.5 3.8 8.5 8.5 8.5c1.7 0 3.4-0.5 4.8-1.5l4.1 4.1c0.3 0.3 0.7 0.5 1.1 0.5C-184.2 440.4-183.5 439.7-183.5 438.9L-183.5 438.9z"/>
    </g>
  </g>
</svg>
